<svg width="42" height="42" viewBox="0 0 42 42" fill="none" xmlns="http://www.w3.org/2000/svg">
<path d="M21 21.8401L42.0001 21.4202V20.5801L21 20.1602V21.8401Z" fill="#FC5842"/>
<path d="M21.4202 10.4999H20.5801L20.1602 0H21.8401L21.4202 10.4999Z" fill="white"/>
<path d="M20.5801 31.5H21.4202L21.8401 41.9999H20.1602L20.5801 31.5Z" fill="white"/>
<path d="M10.4999 20.5801V21.4202L0 21.8401V20.1602L10.4999 20.5801Z" fill="white"/>
<path d="M28.7218 13.8722L28.1279 13.2783L35.2555 5.55664L36.4433 6.74467L28.7218 13.8722Z" fill="white"/>
<path d="M13.2783 28.1279L13.8722 28.7218L6.74467 36.4435L5.55664 35.2555L13.2783 28.1279Z" fill="white"/>
<path d="M28.1279 28.7218L28.7218 28.1279L36.4433 35.2555L35.2555 36.4435L28.1279 28.7218Z" fill="white"/>
<path d="M13.8722 13.2781L13.2783 13.872L5.55664 6.74446L6.74467 5.55664L13.8722 13.2781Z" fill="white"/>
<path d="M17.3698 11.1387L16.5937 11.4602L12.1875 1.92028L13.7396 1.27734L17.3698 11.1387Z" fill="white"/>
<path d="M24.6304 30.8615L25.4064 30.54L29.8126 40.0799L28.2604 40.7229L24.6304 30.8615Z" fill="white"/>
<path d="M11.1387 24.6299L11.4602 25.4059L1.92028 29.8122L1.27734 28.2601L11.1387 24.6299Z" fill="white"/>
<path d="M25.4064 11.4602L24.6304 11.1387L28.2604 1.27734L29.8126 1.92028L25.4064 11.4602Z" fill="white"/>
<path d="M16.5937 30.54L17.3698 30.8615L13.7396 40.7229L12.1875 40.0799L16.5937 30.54Z" fill="white"/>
<path d="M30.54 25.4059L30.8613 24.6299L40.7229 28.2601L40.0799 29.8122L30.54 25.4059Z" fill="white"/>
<path d="M11.4602 16.5937L11.1387 17.3698L1.27734 13.7396L1.92028 12.1875L11.4602 16.5937Z" fill="white"/>
<path d="M19.3632 10.6194L18.5394 10.7832L16.0791 0.566983L17.7269 0.239258L19.3632 10.6194Z" fill="white"/>
<path d="M22.6362 31.3796L23.46 31.2158L25.9206 41.432L24.2728 41.7598L22.6362 31.3796Z" fill="white"/>
<path d="M10.6199 22.6367L10.7837 23.4607L0.567472 25.9211L0.239746 24.2733L10.6199 22.6367Z" fill="white"/>
<path d="M27.1828 12.5026L26.4844 12.036L31.9685 3.07227L33.3653 4.00558L27.1828 12.5026Z" fill="white"/>
<path d="M14.817 29.4971L15.5155 29.9639L10.0311 38.9277L8.63428 37.9941L14.817 29.4971Z" fill="white"/>
<path d="M29.4971 27.1828L29.9637 26.4844L38.9275 31.9687L37.9941 33.3656L29.4971 27.1828Z" fill="white"/>
<path d="M12.5027 14.8175L12.036 15.5159L3.07227 10.0316L4.00579 8.63477L12.5027 14.8175Z" fill="white"/>
<path d="M15.5155 12.036L14.817 12.5026L8.63428 4.00558L10.0311 3.07227L15.5155 12.036Z" fill="white"/>
<path d="M26.4844 29.9639L27.1828 29.4971L33.3653 37.9941L31.9685 38.9277L26.4844 29.9639Z" fill="white"/>
<path d="M29.9637 15.5159L29.4971 14.8175L37.9941 8.63477L38.9275 10.0318L29.9637 15.5159Z" fill="white"/>
<path d="M12.036 26.4844L12.5027 27.1828L4.00558 33.3656L3.07227 31.9687L12.036 26.4844Z" fill="white"/>
<path d="M23.46 10.7832L22.6362 10.6194L24.2728 0.239258L25.9206 0.566983L23.46 10.7832Z" fill="white"/>
<path d="M18.5394 31.2158L19.3632 31.3796L17.7269 41.7598L16.0791 41.432L18.5394 31.2158Z" fill="white"/>
<path d="M31.2163 23.4607L31.3803 22.6367L41.7605 24.2733L41.4327 25.9211L31.2163 23.4607Z" fill="white"/>
<path d="M10.7837 18.5394L10.6199 19.3634L0.239746 17.7269L0.567472 16.0791L10.7837 18.5394Z" fill="white"/>
</svg>
