<svg width="40" height="40" viewBox="0 0 40 40" fill="none" xmlns="http://www.w3.org/2000/svg">
<g filter="url(#filter0_d_1319_29223)">
<rect x="6" y="4" width="28" height="28" rx="7" fill="white"/>
<rect x="6.5" y="4.5" width="27" height="27" rx="6.5" stroke="#C7C7C7"/>
</g>
<defs>
<filter id="filter0_d_1319_29223" x="0" y="0" width="40" height="40" filterUnits="userSpaceOnUse" color-interpolation-filters="sRGB">
<feFlood flood-opacity="0" result="BackgroundImageFix"/>
<feColorMatrix in="SourceAlpha" type="matrix" values="0 0 0 0 0 0 0 0 0 0 0 0 0 0 0 0 0 0 127 0" result="hardAlpha"/>
<feOffset dy="2"/>
<feGaussianBlur stdDeviation="3"/>
<feComposite in2="hardAlpha" operator="out"/>
<feColorMatrix type="matrix" values="0 0 0 0 0.078875 0 0 0 0 0.0770833 0 0 0 0 0.166667 0 0 0 0.06 0"/>
<feBlend mode="normal" in2="BackgroundImageFix" result="effect1_dropShadow_1319_29223"/>
<feBlend mode="normal" in="SourceGraphic" in2="effect1_dropShadow_1319_29223" result="shape"/>
</filter>
</defs>
</svg>
